{
	"type": "minecraft:block",
	"pools": [
		{
			"name": "block",
			"rolls": 1,
			"entries": [
				{
					"type": "minecraft:item",
					"name": "premium_wood:maple_trapdoor"
				}
			],
			"conditions": [
				{
					"condition": "minecraft:survives_explosion"
				}
			]
		}
	]
}
