{
	"replace": false,
	"values": [
		"premium_wood:maple_door",
		"premium_wood:tiger_door",
		"premium_wood:silverbell_door",
		"premium_wood:purple_heart_door",
		"premium_wood:willow_door",
		"premium_wood:magic_door"
	]
}