{
    "parent": "block/door_top",
    "textures": {
        "bottom": "premium_wood:block/silverbell/silverbell_door_bottom",
        "top": "premium_wood:block/silverbell/silverbell_door_top"
    }
}
