{
    "parent": "block/stairs",
    "textures": {
        "bottom": "premium_wood:block/tiger/tiger_planks",
        "top": "premium_wood:block/tiger/tiger_planks",
        "side": "premium_wood:block/tiger/tiger_planks"
    }
}
