{
    "parent": "block/outer_stairs",
    "textures": {
        "bottom": "premium_wood:block/willow/willow_planks",
        "top": "premium_wood:block/willow/willow_planks",
        "side": "premium_wood:block/willow/willow_planks"
    }
}
