{
	"variants": {
		"axis=y":  { "model": "premium_wood:block/tiger_log" },
		"axis=z":   { "model": "premium_wood:block/tiger_log", "x": 90 },
		"axis=x":   { "model": "premium_wood:block/tiger_log", "x": 90, "y": 90 }
	}
}
