{
  "type": "minecraft:crafting_shaped",
  "group": "wooden_pressure_plate",
  "pattern": [
    "##"
  ],
  "key": {
    "#": {
      "item": "premium_wood:magic_planks"
    }
  },
  "result": {
    "item": "premium_wood:magic_pressure_plate"
  }
}