{
  "type": "minecraft:crafting_shaped",
  "group": "wooden_fence_gate",
  "pattern": [
    "#W#",
    "#W#"
  ],
  "key": {
    "#": {
      "item": "minecraft:stick"
    },
    "W": {
      "item": "premium_wood:magic_planks"
    }
  },
  "result": {
    "item": "premium_wood:magic_fence_gate"
  }
}