{
  "type": "minecraft:crafting_shaped",
  "group": "wooden_slab",
  "pattern": [
    "###"
  ],
  "key": {
    "#": {
      "item": "premium_wood:magic_planks"
    }
  },
  "result": {
    "item": "premium_wood:magic_slab",
    "count": 6
  }
}