{
    "type": "minecraft:crafting_shapeless",
    "ingredients": [
        {
            "item": "minecraft:glass"
        },
        {
            "item": "premium_wood:magic_planks"
        }
    ],
    "result": {
        "item": "premium_wood:magic_framed_glass",
        "count": 2
    }
}