{
  "type": "minecraft:crafting_shaped",
  "pattern": [
    "###",
    "XXX",
    "###"
  ],
  "key": {
    "#": {
      "item": "premium_wood:magic_planks"
    },
    "X": {
      "item": "minecraft:book"
    }
  },
  "result": {
    "item": "premium_wood:magic_bookshelf"
  }
}