{
    "type": "minecraft:crafting_shapeless",
    "ingredients": [
        {
            "item": "minecraft:glass"
        },
        {
            "item": "premium_wood:maple_planks"
        }
    ],
    "result": {
        "item": "premium_wood:maple_framed_glass",
        "count": 2
    }
}