{
  "type": "minecraft:crafting_shaped",
  "group": "wooden_trapdoor",
  "pattern": [
    "###",
    "###"
  ],
  "key": {
    "#": {
      "item": "premium_wood:purple_heart_planks"
    }
  },
  "result": {
    "item": "premium_wood:purple_heart_trapdoor",
    "count": 2
  }
}